finalrunner.vcd
$date
	Wed Oct 17 21:22:15 2018
$end
$version
	Icarus Verilog
$end
$timescale
	1ps
$end
$scope module finalTest $end
$var wire 4 ! sRegOutP [3:0] $end
$var wire 1 " sclk $end
$var wire 1 # mosi_pin $end
$var wire 1 $ miso_pin $end
$var wire 1 % endtest $end
$var wire 1 & dutpassed $end
$var wire 1 ' cs $end
$var reg 1 ( begintest $end
$var reg 1 ) clk $end
$scope module dut $end
$var wire 1 ) clk $end
$var wire 4 * leds [3:0] $end
$var wire 1 + serialout $end
$var wire 1 " sclk_pin $end
$var wire 8 , sRegOutP [7:0] $end
$var wire 1 - posSCLK $end
$var wire 1 . posMOSI $end
$var wire 1 / posCS $end
$var wire 1 0 negSCLK $end
$var wire 1 1 negMOSI $end
$var wire 1 2 negCS $end
$var wire 1 # mosi_pin $end
$var wire 1 $ miso_pin $end
$var wire 8 3 dataOut [7:0] $end
$var wire 1 ' cs_pin $end
$var wire 1 4 condSCLK $end
$var wire 1 5 condMOSI $end
$var wire 1 6 condCS $end
$var wire 7 7 address [6:0] $end
$var wire 1 8 SR_WE $end
$var wire 1 9 Q $end
$var wire 1 : MISO_BUFF $end
$var wire 1 ; DM_WE $end
$var wire 1 < ADDR_WE $end
$scope module MOSIcond $end
$var wire 1 ) clk $end
$var wire 1 # noisysignal $end
$var reg 1 5 conditioned $end
$var reg 3 = counter [2:0] $end
$var reg 1 1 negativeedge $end
$var reg 1 . positiveedge $end
$var reg 1 > synchronizer0 $end
$var reg 1 ? synchronizer1 $end
$upscope $end
$scope module SCLKcond $end
$var wire 1 ) clk $end
$var wire 1 " noisysignal $end
$var reg 1 4 conditioned $end
$var reg 3 @ counter [2:0] $end
$var reg 1 0 negativeedge $end
$var reg 1 - positiveedge $end
$var reg 1 A synchronizer0 $end
$var reg 1 B synchronizer1 $end
$upscope $end
$scope module addrlatch0 $end
$var wire 1 ) clk $end
$var wire 8 C D [7:0] $end
$var wire 1 < CE $end
$var reg 8 D Q [7:0] $end
$upscope $end
$scope module butt0cond $end
$var wire 1 ) clk $end
$var wire 1 ' noisysignal $end
$var reg 1 6 conditioned $end
$var reg 3 E counter [2:0] $end
$var reg 1 2 negativeedge $end
$var reg 1 / positiveedge $end
$var reg 1 F synchronizer0 $end
$var reg 1 G synchronizer1 $end
$upscope $end
$scope module dff0 $end
$var wire 1 0 CE $end
$var wire 1 ) clk $end
$var wire 1 + D $end
$var reg 1 9 Q $end
$upscope $end
$scope module dm0 $end
$var wire 7 H address [6:0] $end
$var wire 1 ) clk $end
$var wire 1 ; writeEnable $end
$var wire 8 I dataIn [7:0] $end
$var reg 8 J dataOut [7:0] $end
$upscope $end
$scope module fsm0 $end
$var wire 1 6 cs $end
$var wire 1 - sclk $end
$var wire 1 K sout $end
$var reg 1 < addr_we $end
$var reg 1 ; dm_we $end
$var reg 1 : miso_buff $end
$var reg 1 L next_state $end
$var reg 1 8 sr_we $end
$var reg 1 M state $end
$upscope $end
$scope module register $end
$var wire 1 ) clk $end
$var wire 8 N parallelDataIn [7:0] $end
$var wire 1 8 parallelLoad $end
$var wire 1 - peripheralClkEdge $end
$var wire 1 5 serialDataIn $end
$var reg 8 O parallelDataOut [7:0] $end
$var reg 1 + serialDataOut $end
$var reg 8 P shiftregistermem [7:0] $end
$upscope $end
$upscope $end
$scope module tester $end
$var wire 1 ( begintest $end
$var wire 1 ) clk $end
$var wire 1 $ miso_pin $end
$var wire 4 Q sRegOutP [3:0] $end
$var reg 1 ' cs $end
$var reg 1 & dutpassed $end
$var reg 1 % endtest $end
$var reg 1 # mosi_pin $end
$var reg 1 " sclk $end
$upscope $end
$upscope $end
$enddefinitions $end
#0
$dumpvars
bz Q
bx P
bx O
bx N
xM
xL
xK
bx J
bx I
bx H
0G
0F
b0 E
bx D
bx C
0B
0A
b0 @
0?
0>
b0 =
x<
x;
x:
x9
x8
bx 7
x6
x5
x4
bx 3
x2
x1
x0
x/
x.
x-
bx ,
x+
bz *
0)
0(
x'
x&
x%
x$
x#
x"
bz !
$end
#10000
xF
b1 E
02
0/
x>
b1 =
01
0.
xA
b1 @
00
0-
1)
#20000
0)
#30000
xB
b10 @
x?
b10 =
xG
b10 E
1)
#40000
0)
#50000
b11 E
b11 =
b11 @
1)
#60000
0)
#70000
x0
x-
b0 @
x1
x.
b0 =
x2
x/
b0 E
1)
#80000
0)
#90000
b1 E
02
0/
b1 =
01
0.
b1 @
00
0-
1)
#100000
1&
0%
0)
1(
#110000
b10 @
b10 =
b10 E
1)
#120000
0)
#130000
b11 E
b11 =
b11 @
1)
#140000
0)
#150000
x0
x-
b0 @
x1
x.
b0 =
x2
x/
b0 E
1)
#160000
0)
#170000
b1 E
02
0/
b1 =
01
0.
b1 @
00
0-
1)
#180000
0)
#190000
b10 @
b10 =
b10 E
1)
#200000
0)
0#
0'
#210000
0F
b11 E
0>
b11 =
b11 @
1)
#220000
0)
#230000
x0
x-
b0 @
0?
x1
x.
b0 =
0G
x2
x/
b0 E
1)
#240000
0)
#250000
b1 E
02
0/
b1 =
01
0.
b1 @
00
0-
1)
#260000
0)
#270000
b10 @
b10 =
b10 E
1)
#280000
0)
#290000
b11 E
b11 =
b11 @
1)
#300000
0)
0"
#310000
0A
x0
x-
b0 @
05
x1
b0 =
06
x2
b0 E
1)
#320000
0)
#330000
02
01
0B
b1 @
00
0-
1)
#340000
0)
#350000
b10 @
1)
#360000
0)
#370000
b11 @
1)
#380000
0)
#390000
04
x0
b0 @
1)
#400000
0)
1"
#410000
1A
00
1)
#420000
0)
#430000
1B
1)
#440000
0)
#450000
b1 @
1)
#460000
0)
#470000
b10 @
1)
#480000
0)
#490000
b11 @
1)
#500000
0)
0"
#510000
0A
14
1-
b0 @
1)
#520000
0)
#530000
0B
0-
bx0 P
1)
#540000
0)
#550000
0L
0K
bx0 ,
bx0 C
bx0 I
bx0 O
b1 @
1)
#560000
0)
#570000
b10 @
1)
#580000
0)
#590000
b11 @
1)
#600000
0)
1"
#610000
1A
04
10
b0 @
1)
#620000
0)
#630000
1B
00
1)
#640000
0)
#650000
b1 @
1)
#660000
0)
#670000
b10 @
1)
#680000
0)
#690000
b11 @
1)
#700000
0)
0"
#710000
0M
0A
14
1-
b0 @
1)
#720000
0)
#730000
0B
0-
bx00 P
1)
#740000
0)
#750000
bx00 ,
bx00 C
bx00 I
bx00 O
b1 @
1)
#760000
0)
#770000
b10 @
1)
#780000
0)
#790000
b11 @
1)
#800000
0)
1"
#810000
1A
04
10
b0 @
1)
#820000
0)
#830000
1B
00
1)
#840000
0)
#850000
b1 @
1)
#860000
0)
#870000
b10 @
1)
#880000
0)
#890000
b11 @
1)
#900000
0)
0"
#910000
z$
08
0<
0;
0:
0A
14
1-
b0 @
1)
#920000
0)
#930000
0B
0-
bx000 P
1)
#940000
0)
#950000
bx000 ,
bx000 C
bx000 I
bx000 O
b1 @
1)
#960000
0)
#970000
b10 @
1)
#980000
0)
#990000
b11 @
1)
#1000000
0)
1"
#1010000
1A
04
10
b0 @
1)
#1020000
0)
#1030000
1B
00
1)
#1040000
0)
#1050000
b1 @
1)
#1060000
0)
#1070000
b10 @
1)
#1080000
0)
#1090000
b11 @
1)
#1100000
0)
0"
#1110000
0A
14
1-
b0 @
1)
#1120000
0)
#1130000
0B
0-
bx0000 P
1)
#1140000
0)
#1150000
bx0000 ,
bx0000 C
bx0000 I
bx0000 O
b1 @
1)
#1160000
0)
#1170000
b10 @
1)
#1180000
0)
#1190000
b11 @
1)
#1200000
0)
1#
#1210000
1>
04
10
b0 @
1)
#1220000
0)
#1230000
00
1?
1)
#1240000
0)
#1250000
b1 =
1)
#1260000
0)
#1270000
b10 =
1)
#1280000
0)
#1290000
b11 =
1)
#1300000
0)
1"
#1310000
1A
15
1.
b0 =
1)
#1320000
0)
#1330000
0.
1B
1)
#1340000
0)
#1350000
b1 @
1)
#1360000
0)
#1370000
b10 @
1)
#1380000
0)
#1390000
b11 @
1)
#1400000
0)
0"
#1410000
0A
14
1-
b0 @
1)
#1420000
0)
#1430000
bx00001 P
0B
0-
1)
#1440000
0)
#1450000
1L
1K
b1 @
bx00001 ,
bx00001 C
bx00001 I
bx00001 O
1)
#1460000
0)
#1470000
b10 @
1)
#1480000
0)
#1490000
b11 @
1)
#1500000
0)
0#
#1510000
04
10
b0 @
0>
1)
#1520000
0)
#1530000
0?
00
1)
#1540000
0)
#1550000
b1 =
1)
#1560000
0)
#1570000
b10 =
1)
#1580000
0)
#1590000
b11 =
1)
#1600000
0)
1"
#1610000
05
11
b0 =
1A
1)
#1620000
0)
#1630000
1B
01
1)
#1640000
0)
#1650000
b1 @
1)
#1660000
0)
#1670000
b10 @
1)
#1680000
0)
#1690000
b11 @
1)
#1700000
0)
0"
#1710000
1M
0A
14
1-
b0 @
1)
#1720000
0)
#1730000
0B
0-
bx000010 P
1)
#1740000
0)
#1750000
0L
0K
bx000010 ,
bx000010 C
bx000010 I
bx000010 O
b1 @
1)
#1760000
0)
#1770000
b10 @
1)
#1780000
0)
#1790000
b11 @
1)
#1800000
0)
1#
#1810000
1>
04
10
b0 @
1)
#1820000
0)
#1830000
00
1?
1)
#1840000
0)
#1850000
b1 =
1)
#1860000
0)
#1870000
b10 =
1)
#1880000
0)
#1890000
b11 =
1)
#1900000
0)
1"
#1910000
1A
15
1.
b0 =
1)
#1920000
0)
#1930000
0.
1B
1)
#1940000
0)
#1950000
b1 @
1)
#1960000
0)
#1970000
b10 @
1)
#1980000
0)
#1990000
b11 @
1)
#2000000
0)
0"
#2010000
0M
0A
14
1-
b0 @
1)
#2020000
0)
#2030000
bx0000101 P
0B
0-
1)
#2040000
0)
#2050000
1L
1K
b1 @
bx0000101 ,
bx0000101 C
bx0000101 I
bx0000101 O
1)
#2060000
0)
#2070000
b10 @
1)
#2080000
0)
#2090000
b11 @
1)
#2100000
0)
0#
#2110000
04
10
b0 @
0>
1)
#2120000
0)
#2130000
0?
00
1)
#2140000
0)
#2150000
b1 =
1)
#2160000
0)
#2170000
b10 =
1)
#2180000
0)
#2190000
b11 =
1)
#2200000
0)
1"
#2210000
05
11
b0 =
1A
1)
#2220000
0)
#2230000
1B
01
1)
#2240000
0)
#2250000
b1 @
1)
#2260000
0)
#2270000
b10 @
1)
#2280000
0)
#2290000
b11 @
1)
#2300000
0)
0"
#2310000
1M
0A
14
1-
b0 @
1)
#2320000
0)
#2330000
0B
0-
b1010 P
1)
#2340000
0)
#2350000
0L
0K
0+
b1010 ,
b1010 C
b1010 I
b1010 O
b1 @
1)
#2360000
0)
#2370000
b10 @
1)
#2380000
0)
#2390000
b11 @
1)
#2400000
0)
1#
#2410000
1>
04
10
b0 @
1)
#2420000
0)
#2430000
09
00
1?
1)
#2440000
0)
#2450000
b1 =
1)
#2460000
0)
#2470000
b10 =
1)
#2480000
0)
#2490000
b11 =
1)
#2500000
0)
#2510000
15
1.
b0 =
1)
#2520000
0)
#2530000
0.
1)
#2540000
0)
#2550000
1)
#2560000
0)
#2570000
1)
#2580000
0)
#2590000
1)
#2600000
0)
1"
#2610000
1A
1)
#2620000
0)
#2630000
1B
1)
#2640000
0)
#2650000
b1 @
1)
#2660000
0)
#2670000
b10 @
1)
#2680000
0)
#2690000
b11 @
1)
#2700000
0)
0"
#2710000
0M
0A
14
1-
b0 @
1)
#2720000
0)
#2730000
0B
0-
b10101 P
1)
#2740000
0)
#2750000
1L
1K
b10101 ,
b10101 C
b10101 I
b10101 O
b1 @
1)
#2760000
0)
#2770000
b10 @
1)
#2780000
0)
#2790000
b11 @
1)
#2800000
0)
1"
#2810000
1A
04
10
b0 @
1)
#2820000
0)
#2830000
1B
00
1)
#2840000
0)
#2850000
b1 @
1)
#2860000
0)
#2870000
b10 @
1)
#2880000
0)
#2890000
b11 @
1)
#2900000
0)
0"
#2910000
1M
0A
14
1-
b0 @
1)
#2920000
0)
#2930000
0B
0-
b101011 P
1)
#2940000
0)
#2950000
b101011 ,
b101011 C
b101011 I
b101011 O
b1 @
1)
#2960000
0)
#2970000
b10 @
1)
#2980000
0)
#2990000
b11 @
1)
#3000000
0)
1"
#3010000
1A
04
10
b0 @
1)
#3020000
0)
#3030000
1B
00
1)
#3040000
0)
#3050000
b1 @
1)
#3060000
0)
#3070000
b10 @
1)
#3080000
0)
#3090000
b11 @
1)
#3100000
0)
0"
#3110000
0A
14
1-
b0 @
1)
#3120000
0)
#3130000
0B
0-
b1010111 P
1)
#3140000
0)
#3150000
b1010111 ,
b1010111 C
b1010111 I
b1010111 O
b1 @
1)
#3160000
0)
#3170000
b10 @
1)
#3180000
0)
#3190000
b11 @
1)
#3200000
0)
1"
#3210000
1A
04
10
b0 @
1)
#3220000
0)
#3230000
1B
00
1)
#3240000
0)
#3250000
b1 @
1)
#3260000
0)
#3270000
b10 @
1)
#3280000
0)
#3290000
b11 @
1)
#3300000
0)
0"
#3310000
0A
14
1-
b0 @
1)
#3320000
0)
#3330000
0B
0-
b10101111 P
1)
#3340000
0)
#3350000
1+
b10101111 ,
b10101111 C
b10101111 I
b10101111 O
b1 @
1)
#3360000
0)
#3370000
b10 @
1)
#3380000
0)
#3390000
b11 @
1)
#3400000
0)
0#
#3410000
0>
04
10
b0 @
1)
#3420000
0)
#3430000
19
00
0?
1)
#3440000
0)
#3450000
b1 =
1)
#3460000
0)
#3470000
b10 =
1)
#3480000
0)
#3490000
b11 =
1)
#3500000
0)
#3510000
05
11
b0 =
1)
#3520000
0)
#3530000
01
1)
#3540000
0)
#3550000
1)
#3560000
0)
#3570000
1)
#3580000
0)
#3590000
1)
#3600000
0)
1"
#3610000
1A
1)
#3620000
0)
#3630000
1B
1)
#3640000
0)
#3650000
b1 @
1)
#3660000
0)
#3670000
b10 @
1)
#3680000
0)
#3690000
b11 @
1)
#3700000
0)
0"
#3710000
0A
14
1-
b0 @
1)
#3720000
0)
#3730000
0B
0-
b1011110 P
1)
#3740000
0)
#3750000
0L
0K
0+
b1011110 ,
b1011110 C
b1011110 I
b1011110 O
b1 @
1)
#3760000
0)
#3770000
b10 @
1)
#3780000
0)
#3790000
b11 @
1)
#3800000
0)
1"
#3810000
1A
04
10
b0 @
1)
#3820000
0)
#3830000
09
1B
00
1)
#3840000
0)
#3850000
b1 @
1)
#3860000
0)
#3870000
b10 @
1)
#3880000
0)
#3890000
b11 @
1)
#3900000
0)
0"
#3910000
0M
0A
14
1-
b0 @
1)
#3920000
0)
#3930000
0B
0-
b10111100 P
1)
#3940000
0)
#3950000
1+
b10111100 ,
b10111100 C
b10111100 I
b10111100 O
b1 @
1)
#3960000
0)
#3970000
b10 @
1)
#3980000
0)
#3990000
b11 @
1)
#4000000
0)
1"
#4010000
1A
04
10
b0 @
1)
#4020000
0)
#4030000
19
1B
00
1)
#4040000
0)
#4050000
b1 @
1)
#4060000
0)
#4070000
b10 @
1)
#4080000
0)
#4090000
b11 @
1)
#4100000
0)
0"
#4110000
0A
14
1-
b0 @
1)
#4120000
0)
#4130000
0B
0-
b1111000 P
1)
#4140000
0)
#4150000
0+
b1111000 ,
b1111000 C
b1111000 I
b1111000 O
b1 @
1)
#4160000
0)
#4170000
b10 @
1)
#4180000
0)
#4190000
b11 @
1)
#4200000
0)
1"
#4210000
1A
04
10
b0 @
1)
#4220000
0)
#4230000
09
1B
00
1)
#4240000
0)
#4250000
b1 @
1)
#4260000
0)
#4270000
b10 @
1)
#4280000
0)
#4290000
b11 @
1)
#4300000
0)
0"
#4310000
0A
14
1-
b0 @
1)
#4320000
0)
#4330000
0B
0-
b11110000 P
1)
#4340000
0)
#4350000
1+
b11110000 ,
b11110000 C
b11110000 I
b11110000 O
b1 @
1)
#4360000
0)
#4370000
b10 @
1)
#4380000
0)
#4390000
b11 @
1)
#4400000
0)
1#
1'
#4410000
1F
1>
04
10
b0 @
1)
#4420000
0)
#4430000
19
00
1?
1G
1)
#4440000
0)
#4450000
b1 E
b1 =
1)
#4460000
0)
#4470000
b10 =
b10 E
1)
#4480000
0)
#4490000
b11 E
b11 =
1)
#4500000
0)
#4510000
15
1.
b0 =
16
1/
b0 E
1)
#4520000
0)
#4530000
0/
0.
1)
#4540000
0)
#4550000
1)
#4560000
0)
#4570000
1)
#4580000
0)
#4590000
1)
#4600000
0)
1"
#4610000
1A
1)
#4620000
0)
#4630000
1B
1)
#4640000
0)
#4650000
b1 @
1)
#4660000
0)
#4670000
b10 @
1)
#4680000
0)
#4690000
b11 @
1)
#4700000
0)
0"
#4710000
0A
14
1-
b0 @
1)
#4720000
0)
#4730000
0B
0-
b11100001 P
1)
#4740000
0)
#4750000
1L
1K
b11100001 ,
b11100001 C
b11100001 I
b11100001 O
b1 @
1)
#4760000
0)
#4770000
b10 @
1)
#4780000
0)
#4790000
b11 @
1)
#4800000
0)
0#
#4810000
0>
04
10
b0 @
1)
#4820000
0)
#4830000
00
0?
1)
#4840000
0)
#4850000
b1 =
1)
#4860000
0)
#4870000
b10 =
1)
#4880000
0)
#4890000
b11 =
1)
#4900000
0)
1"
#4910000
1A
05
11
b0 =
1)
#4920000
0)
#4930000
01
1B
1)
#4940000
0)
#4950000
b1 @
1)
#4960000
0)
#4970000
b10 @
1)
#4980000
0)
#4990000
b11 @
1)
#5000000
0)
0"
#5010000
0A
14
1-
b0 @
1)
#5020000
0)
#5030000
b11000010 P
0B
0-
1)
#5040000
0)
#5050000
1L
0K
b1 @
b11000010 ,
b11000010 C
b11000010 I
b11000010 O
1)
#5060000
0)
#5070000
b10 @
1)
#5080000
0)
#5090000
b11 @
1)
#5100000
0)
1#
#5110000
04
10
b0 @
1>
1)
#5120000
0)
#5130000
1?
00
1)
#5140000
0)
#5150000
b1 =
1)
#5160000
0)
#5170000
b10 =
1)
#5180000
0)
#5190000
b11 =
1)
#5200000
0)
1"
#5210000
15
1.
b0 =
1A
1)
#5220000
0)
#5230000
1B
0.
1)
#5240000
0)
#5250000
b1 @
1)
#5260000
0)
#5270000
b10 @
1)
#5280000
0)
#5290000
b11 @
1)
#5300000
0)
0"
#5310000
0A
14
1-
b0 @
1)
#5320000
0)
#5330000
0B
0-
b10000101 P
1)
#5340000
0)
#5350000
1L
1K
b10000101 ,
b10000101 C
b10000101 I
b10000101 O
b1 @
1)
#5360000
0)
#5370000
b10 @
1)
#5380000
0)
#5390000
b11 @
1)
#5400000
0)
0#
#5410000
0>
04
10
b0 @
1)
#5420000
0)
#5430000
00
0?
1)
#5440000
0)
#5450000
b1 =
1)
#5460000
0)
#5470000
b10 =
1)
#5480000
0)
#5490000
b11 =
1)
#5500000
0)
1"
#5510000
1A
05
11
b0 =
1)
#5520000
0)
#5530000
01
1B
1)
#5540000
0)
#5550000
b1 @
1)
#5560000
0)
#5570000
b10 @
1)
#5580000
0)
#5590000
b11 @
1)
#5600000
0)
0"
#5610000
0A
14
1-
b0 @
1)
#5620000
0)
#5630000
b1010 P
0B
0-
1)
#5640000
0)
#5650000
1L
0K
b1 @
0+
b1010 ,
b1010 C
b1010 I
b1010 O
1)
#5660000
0)
#5670000
b10 @
1)
#5680000
0)
#5690000
b11 @
1)
#5700000
0)
1"
#5710000
1A
04
10
b0 @
1)
#5720000
0)
#5730000
1B
00
09
1)
#5740000
0)
#5750000
b1 @
1)
#5760000
0)
#5770000
b10 @
1)
#5780000
0)
#5790000
b11 @
1)
#5800000
0)
0"
#5810000
0A
14
1-
b0 @
1)
#5820000
0)
#5830000
b10100 P
0B
0-
1)
#5840000
0)
#5850000
b1 @
b10100 ,
b10100 C
b10100 I
b10100 O
1)
#5860000
0)
#5870000
b10 @
1)
#5880000
0)
#5890000
b11 @
1)
#5900000
0)
1"
#5910000
1A
04
10
b0 @
1)
#5920000
0)
#5930000
1B
00
1)
#5940000
0)
#5950000
b1 @
1)
#5960000
0)
#5970000
b10 @
1)
#5980000
0)
#5990000
b11 @
1)
#6000000
0)
0"
#6010000
0A
14
1-
b0 @
1)
#6020000
0)
#6030000
b101000 P
0B
0-
1)
#6040000
0)
#6050000
b1 @
b101000 ,
b101000 C
b101000 I
b101000 O
1)
#6060000
0)
#6070000
b10 @
1)
#6080000
0)
#6090000
b11 @
1)
#6100000
0)
1"
#6110000
1A
04
10
b0 @
1)
#6120000
0)
#6130000
1B
00
1)
#6140000
0)
#6150000
b1 @
1)
#6160000
0)
#6170000
b10 @
1)
#6180000
0)
#6190000
b11 @
1)
#6200000
0)
0"
#6210000
0A
14
1-
b0 @
1)
#6220000
0)
#6230000
b1010000 P
0B
0-
1)
#6240000
0)
#6250000
b1 @
b1010000 ,
b1010000 C
b1010000 I
b1010000 O
1)
#6260000
0)
#6270000
b10 @
1)
#6280000
0)
#6290000
b11 @
1)
#6300000
0)
1"
#6310000
1A
04
10
b0 @
1)
#6320000
0)
#6330000
1B
00
1)
#6340000
0)
#6350000
b1 @
1)
#6360000
0)
#6370000
b10 @
1)
#6380000
0)
#6390000
b11 @
1)
#6400000
0)
0"
#6410000
0A
14
1-
b0 @
1)
#6420000
0)
#6430000
b10100000 P
0B
0-
1)
#6440000
0)
#6450000
b1 @
1+
b10100000 ,
b10100000 C
b10100000 I
b10100000 O
1)
#6460000
0)
#6470000
b10 @
1)
#6480000
0)
#6490000
b11 @
1)
#6500000
0)
1#
#6510000
04
10
b0 @
1>
1)
#6520000
0)
#6530000
1?
00
19
1)
#6540000
0)
#6550000
b1 =
1)
#6560000
0)
#6570000
b10 =
1)
#6580000
0)
#6590000
b11 =
1)
#6600000
0)
#6610000
15
1.
b0 =
1)
#6620000
0)
#6630000
0.
1)
#6640000
0)
#6650000
1)
#6660000
0)
#6670000
1)
#6680000
0)
#6690000
1)
#6700000
0)
1"
#6710000
1A
1)
#6720000
0)
#6730000
1B
1)
#6740000
0)
#6750000
b1 @
1)
#6760000
0)
#6770000
b10 @
1)
#6780000
0)
#6790000
b11 @
1)
#6800000
0)
0"
#6810000
0A
14
1-
b0 @
1)
#6820000
0)
#6830000
b1000001 P
0B
0-
1)
#6840000
0)
#6850000
1L
1K
b1 @
0+
b1000001 ,
b1000001 C
b1000001 I
b1000001 O
1)
#6860000
0)
#6870000
b10 @
1)
#6880000
0)
#6890000
b11 @
1)
#6900000
0)
0#
#6910000
04
10
b0 @
0>
1)
#6920000
0)
#6930000
0?
00
09
1)
#6940000
0)
#6950000
b1 =
1)
#6960000
0)
#6970000
b10 =
1)
#6980000
0)
#6990000
b11 =
1)
#7000000
0)
1"
#7010000
05
11
b0 =
1A
1)
#7020000
0)
#7030000
1B
01
1)
#7040000
0)
#7050000
b1 @
1)
#7060000
0)
#7070000
b10 @
1)
#7080000
0)
#7090000
b11 @
1)
#7100000
0)
0"
#7110000
0A
14
1-
b0 @
1)
#7120000
0)
#7130000
0B
0-
b10000010 P
1)
#7140000
0)
#7150000
1L
0K
1+
b10000010 ,
b10000010 C
b10000010 I
b10000010 O
b1 @
1)
#7160000
0)
#7170000
b10 @
1)
#7180000
0)
#7190000
b11 @
1)
#7200000
0)
1#
#7210000
1>
04
10
b0 @
1)
#7220000
0)
#7230000
19
00
1?
1)
#7240000
0)
#7250000
b1 =
1)
#7260000
0)
#7270000
b10 =
1)
#7280000
0)
#7290000
b11 =
1)
#7300000
0)
#7310000
15
1.
b0 =
1)
#7320000
0)
#7330000
0.
1)
#7340000
0)
#7350000
1)
#7360000
0)
#7370000
1)
#7380000
0)
#7390000
1)
#7400000
0)
1"
#7410000
1A
1)
#7420000
0)
#7430000
1B
1)
#7440000
0)
#7450000
b1 @
1)
#7460000
0)
#7470000
b10 @
1)
#7480000
0)
#7490000
b11 @
1)
#7500000
0)
0"
#7510000
0A
14
1-
b0 @
1)
#7520000
0)
#7530000
0B
0-
b101 P
1)
#7540000
0)
#7550000
1L
1K
0+
b101 ,
b101 C
b101 I
b101 O
b1 @
1)
#7560000
0)
#7570000
b10 @
1)
#7580000
0)
#7590000
b11 @
1)
#7600000
0)
0#
#7610000
0>
04
10
b0 @
1)
#7620000
0)
#7630000
09
00
0?
1)
#7640000
0)
#7650000
b1 =
1)
#7660000
0)
#7670000
b10 =
1)
#7680000
0)
#7690000
b11 =
1)
#7700000
0)
1"
#7710000
1A
05
11
b0 =
1)
#7720000
0)
#7730000
01
1B
1)
#7740000
0)
#7750000
b1 @
1)
#7760000
0)
#7770000
b10 @
1)
#7780000
0)
#7790000
b11 @
1)
#7800000
0)
0"
#7810000
0A
14
1-
b0 @
1)
#7820000
0)
#7830000
b1010 P
0B
0-
1)
#7840000
0)
#7850000
1L
0K
b1 @
b1010 ,
b1010 C
b1010 I
b1010 O
1)
#7860000
0)
#7870000
b10 @
1)
#7880000
0)
#7890000
b11 @
1)
#7900000
0)
1#
#7910000
04
10
b0 @
1>
1)
#7920000
0)
#7930000
1?
00
1)
#7940000
0)
#7950000
b1 =
1)
#7960000
0)
#7970000
b10 =
1)
#7980000
0)
#7990000
b11 =
1)
#8000000
0)
#8010000
15
1.
b0 =
1)
#8020000
0)
#8030000
0.
1)
#8040000
0)
#8050000
1)
#8060000
0)
#8070000
1)
#8080000
0)
#8090000
1)
#8100000
0)
1"
#8110000
1A
1)
#8120000
0)
#8130000
1B
1)
#8140000
0)
#8150000
b1 @
1)
#8160000
0)
#8170000
b10 @
1)
#8180000
0)
#8190000
b11 @
1)
#8200000
0)
0"
#8210000
0A
14
1-
b0 @
1)
#8220000
0)
#8230000
b10101 P
0B
0-
1)
#8240000
0)
#8250000
1L
1K
b1 @
b10101 ,
b10101 C
b10101 I
b10101 O
1)
#8260000
0)
#8270000
b10 @
1)
#8280000
0)
#8290000
b11 @
1)
#8300000
0)
0#
#8310000
04
10
b0 @
0>
1)
#8320000
0)
#8330000
0?
00
1)
#8340000
0)
#8350000
b1 =
1)
#8360000
0)
#8370000
b10 =
1)
#8380000
0)
#8390000
b11 =
1)
#8400000
0)
1"
#8410000
05
11
b0 =
1A
1)
#8420000
0)
#8430000
1B
01
1)
#8440000
0)
#8450000
b1 @
1)
#8460000
0)
#8470000
b10 @
1)
#8480000
0)
#8490000
b11 @
1)
#8500000
0)
0"
#8510000
0A
14
1-
b0 @
1)
#8520000
0)
#8530000
0B
0-
b101010 P
1)
#8540000
0)
#8550000
1L
0K
b101010 ,
b101010 C
b101010 I
b101010 O
b1 @
1)
#8560000
0)
#8570000
b10 @
1)
#8580000
0)
#8590000
b11 @
1)
#8600000
0)
1#
#8610000
1>
04
10
b0 @
1)
#8620000
0)
#8630000
00
1?
1)
#8640000
0)
#8650000
b1 =
1)
#8660000
0)
#8670000
b10 =
1)
#8680000
0)
#8690000
b11 =
1)
#8700000
0)
#8710000
15
1.
b0 =
1)
#8720000
0)
#8730000
0.
1)
#8740000
0)
#8750000
1)
#8760000
0)
#8770000
1)
#8780000
0)
#8790000
1)
#8800000
0)
1"
#8810000
1A
1)
#8820000
0)
#8830000
1B
1)
#8840000
0)
#8850000
b1 @
1)
#8860000
0)
#8870000
b10 @
1)
#8880000
0)
#8890000
b11 @
1)
#8900000
0)
0"
#8910000
0A
14
1-
b0 @
1)
#8920000
0)
#8930000
0B
0-
b1010101 P
1)
#8940000
0)
#8950000
1L
1K
b1010101 ,
b1010101 C
b1010101 I
b1010101 O
b1 @
1)
#8960000
0)
#8970000
b10 @
1)
#8980000
0)
#8990000
b11 @
1)
#9000000
0)
#9010000
04
10
b0 @
1)
#9020000
0)
#9030000
00
1)
#9040000
0)
#9050000
1)
#9060000
0)
#9070000
1)
#9080000
0)
#9090000
1)
#9100000
0)
1"
#9110000
1A
1)
#9120000
0)
#9130000
1B
1)
#9140000
0)
#9150000
b1 @
1)
#9160000
0)
#9170000
b10 @
1)
#9180000
0)
#9190000
b11 @
1)
#9200000
0)
0"
#9210000
0A
14
1-
b0 @
1)
#9220000
0)
#9230000
b10101011 P
0B
0-
1)
#9240000
0)
#9250000
b1 @
1+
b10101011 ,
b10101011 C
b10101011 I
b10101011 O
1)
#9260000
0)
#9270000
b10 @
1)
#9280000
0)
#9290000
b11 @
1)
#9300000
0)
0#
#9310000
04
10
b0 @
0>
1)
#9320000
0)
#9330000
0?
00
19
1)
#9340000
0)
#9350000
b1 =
1)
#9360000
0)
#9370000
b10 =
1)
#9380000
0)
#9390000
b11 =
1)
#9400000
0)
#9410000
05
11
b0 =
1)
#9420000
0)
#9430000
01
1)
#9440000
0)
#9450000
1)
#9460000
0)
#9470000
1)
#9480000
0)
#9490000
1)
#9500000
0)
1"
#9510000
1A
1)
#9520000
0)
#9530000
1B
1)
#9540000
0)
#9550000
b1 @
1)
#9560000
0)
#9570000
b10 @
1)
#9580000
0)
#9590000
b11 @
1)
#9600000
0)
0"
#9610000
0A
14
1-
b0 @
1)
#9620000
0)
#9630000
b1010110 P
0B
0-
1)
#9640000
0)
#9650000
1L
0K
b1 @
0+
b1010110 ,
b1010110 C
b1010110 I
b1010110 O
1)
#9660000
0)
#9670000
b10 @
1)
#9680000
0)
#9690000
b11 @
1)
#9700000
0)
1"
#9710000
1A
04
10
b0 @
1)
#9720000
0)
#9730000
1B
00
09
1)
#9740000
0)
#9750000
b1 @
1)
#9760000
0)
#9770000
b10 @
1)
#9780000
0)
#9790000
b11 @
1)
#9800000
0)
0"
#9810000
0A
14
1-
b0 @
1)
#9820000
0)
#9830000
b10101100 P
0B
0-
1)
#9840000
0)
#9850000
b1 @
1+
b10101100 ,
b10101100 C
b10101100 I
b10101100 O
1)
#9860000
0)
#9870000
b10 @
1)
#9880000
0)
#9890000
b11 @
1)
#9900000
0)
1"
#9910000
1A
04
10
b0 @
1)
#9920000
0)
#9930000
1B
00
19
1)
#9940000
0)
#9950000
b1 @
1)
#9960000
0)
#9970000
b10 @
1)
#9980000
0)
#9990000
b11 @
1)
#10000000
0)
0"
#10010000
0A
14
1-
b0 @
1)
#10020000
0)
#10030000
b1011000 P
0B
0-
1)
#10040000
0)
