wrapper.vcd
$date
	Wed Oct 10 19:47:04 2018
$end
$version
	Icarus Verilog
$end
$timescale
	1s
$end
$scope module testWrapper $end
$var wire 4 ! leds [3:0] $end
$var reg 1 " buttons $end
$var reg 1 # clk $end
$var reg 2 $ switches [1:0] $end
$scope module overallWrapper $end
$var wire 1 " btn $end
$var wire 1 # clk $end
$var wire 4 % led [3:0] $end
$var wire 2 & sw [1:0] $end
$var wire 8 ' test [7:0] $end
$var wire 1 ( serialout $end
$var wire 1 ) poss1 $end
$var wire 1 * poss0 $end
$var wire 1 + posb0 $end
$var wire 1 , negs1 $end
$var wire 1 - negs0 $end
$var wire 1 . negb0 $end
$var wire 1 / conds1 $end
$var wire 1 0 conds0 $end
$var wire 1 1 condb0 $end
$scope module butt0cond $end
$var wire 1 # clk $end
$var wire 1 " noisysignal $end
$var reg 1 1 conditioned $end
$var reg 3 2 counter [2:0] $end
$var reg 1 . negativeedge $end
$var reg 1 + positiveedge $end
$var reg 1 3 synchronizer0 $end
$var reg 1 4 synchronizer1 $end
$upscope $end
$scope module register $end
$var wire 1 # clk $end
$var wire 8 5 parallelDataIn [7:0] $end
$var wire 1 . parallelLoad $end
$var wire 1 0 serialDataIn $end
$var wire 1 ) peripheralClkEdge $end
$var reg 8 6 parallelDataOut [7:0] $end
$var reg 1 ( serialDataOut $end
$var reg 8 7 shiftregistermem [7:0] $end
$upscope $end
$scope module sw0cond $end
$var wire 1 # clk $end
$var wire 1 8 noisysignal $end
$var reg 1 0 conditioned $end
$var reg 3 9 counter [2:0] $end
$var reg 1 - negativeedge $end
$var reg 1 * positiveedge $end
$var reg 1 : synchronizer0 $end
$var reg 1 ; synchronizer1 $end
$upscope $end
$scope module sw1cond $end
$var wire 1 # clk $end
$var wire 1 < noisysignal $end
$var reg 1 / conditioned $end
$var reg 3 = counter [2:0] $end
$var reg 1 , negativeedge $end
$var reg 1 ) positiveedge $end
$var reg 1 > synchronizer0 $end
$var reg 1 ? synchronizer1 $end
$upscope $end
$upscope $end
$upscope $end
$enddefinitions $end
#0
$dumpvars
0?
0>
b0 =
x<
0;
0:
b0 9
x8
bx 7
bx 6
b0 5
04
03
b0 2
x1
x0
x/
x.
x-
x,
x+
x*
x)
x(
bx '
bx &
bz %
bx $
0#
0"
bz !
$end
#10
b1 2
0.
0+
x:
b1 9
0-
0*
x>
b1 =
0,
0)
1#
#20
0#
#30
x?
b10 =
x;
b10 9
b10 2
1#
#40
0#
#50
b11 2
b11 9
b11 =
1#
#60
0#
#70
x,
x)
b0 =
x-
x*
b0 9
01
x.
b0 2
1#
#80
0#
#90
0.
b1 9
0-
0*
b1 =
0,
0)
1#
#100
0#
#110
b10 =
b10 9
1#
#120
0#
#130
b11 9
b11 =
1#
#140
0#
#150
x,
x)
b0 =
x-
x*
b0 9
1#
#160
0#
#170
b1 9
0-
0*
b1 =
0,
0)
1#
#180
0#
#190
b10 =
b10 9
1#
#200
08
0<
0#
b0 $
b0 &
#210
0:
b11 9
0>
b11 =
1#
#220
0#
#230
0?
x,
x)
b0 =
0;
x-
x*
b0 9
1#
#240
0#
#250
b1 9
0-
0*
b1 =
0,
0)
1#
#260
0#
#270
b10 =
b10 9
1#
#280
0#
#290
b11 9
b11 =
1#
#300
0#
#310
0/
x,
b0 =
00
x-
b0 9
1#
#320
0#
#330
0-
0,
1#
#340
0#
#350
1#
#360
0#
#370
1#
#380
0#
#390
1#
#400
18
0#
b1 $
b1 &
#410
1:
1#
#420
0#
#430
1;
1#
#440
0#
#450
b1 9
1#
#460
0#
#470
b10 9
1#
#480
0#
#490
b11 9
1#
#500
0#
#510
10
1*
b0 9
1#
#520
0#
#530
0*
1#
#540
0#
#550
1#
#560
0#
#570
1#
#580
0#
#590
1#
#600
1<
0#
b11 $
b11 &
#610
1>
1#
#620
0#
#630
1?
1#
#640
0#
#650
b1 =
1#
#660
0#
#670
b10 =
1#
#680
0#
#690
b11 =
1#
#700
0#
#710
1/
1)
b0 =
1#
#720
0#
#730
0)
bx1 7
1#
#740
0#
#750
bx1 '
bx1 6
1#
#760
0#
#770
1#
#780
0#
#790
1#
#800
0<
0#
b1 $
b1 &
#810
0>
1#
#820
0#
#830
0?
1#
#840
0#
#850
b1 =
1#
#860
0#
#870
b10 =
1#
#880
0#
#890
b11 =
1#
#900
0#
#910
0/
1,
b0 =
1#
#920
0#
#930
0,
1#
#940
0#
#950
1#
#960
0#
#970
1#
#980
0#
#990
1#
#1000
1<
0#
b11 $
b11 &
#1010
1>
1#
#1020
0#
#1030
1?
1#
#1040
0#
#1050
b1 =
1#
#1060
0#
#1070
b10 =
1#
#1080
0#
#1090
b11 =
1#
#1100
0#
#1110
1/
1)
b0 =
1#
#1120
0#
#1130
0)
bx11 7
1#
#1140
0#
#1150
bx11 '
bx11 6
1#
#1160
0#
#1170
1#
#1180
0#
#1190
1#
#1200
0<
0#
b1 $
b1 &
#1210
0>
1#
#1220
0#
#1230
0?
1#
#1240
0#
#1250
b1 =
1#
#1260
0#
#1270
b10 =
1#
#1280
0#
#1290
b11 =
1#
#1300
0#
#1310
0/
1,
b0 =
1#
#1320
0#
#1330
0,
1#
#1340
0#
#1350
1#
#1360
0#
#1370
1#
#1380
0#
#1390
1#
#1400
08
0#
b0 $
b0 &
#1410
0:
1#
#1420
0#
#1430
0;
1#
#1440
0#
#1450
b1 9
1#
#1460
0#
#1470
b10 9
1#
#1480
0#
#1490
b11 9
1#
#1500
0#
#1510
00
1-
b0 9
1#
#1520
0#
#1530
0-
1#
#1540
0#
#1550
1#
#1560
0#
#1570
1#
#1580
0#
#1590
1#
#1600
18
0#
b1 $
b1 &
#1610
1:
1#
#1620
0#
#1630
1;
1#
#1640
0#
#1650
b1 9
1#
#1660
0#
#1670
b10 9
1#
#1680
0#
#1690
b11 9
1#
#1700
0#
#1710
10
1*
b0 9
1#
#1720
0#
#1730
0*
1#
#1740
0#
#1750
1#
#1760
0#
#1770
1#
#1780
0#
#1790
1#
#1800
0#
1"
#1810
13
1#
#1820
0#
#1830
14
1#
#1840
0#
#1850
b1 2
1#
#1860
0#
#1870
b10 2
1#
#1880
0#
#1890
b11 2
1#
#1900
0#
#1910
11
1+
b0 2
1#
#1920
0#
#1930
0+
1#
